<?xml version="1.0" encoding="UTF-8" standalone="no"?>
<svg
   xmlns:dc="http://purl.org/dc/elements/1.1/"
   xmlns:cc="http://creativecommons.org/ns#"
   xmlns:rdf="http://www.w3.org/1999/02/22-rdf-syntax-ns#"
   xmlns:svg="http://www.w3.org/2000/svg"
   xmlns="http://www.w3.org/2000/svg"
   xmlns:sodipodi="http://sodipodi.sourceforge.net/DTD/sodipodi-0.dtd"
   xmlns:inkscape="http://www.inkscape.org/namespaces/inkscape"
   height="128.96158"
   width="57.347485"
   version="1.1"
   viewBox="0 0 129.49924 129.44617"
   id="svg2"
   sodipodi:docname="help.svg"
   inkscape:version="0.92.3 (2405546, 2018-03-11)">
  <sodipodi:namedview
     pagecolor="#ffffff"
     bordercolor="#666666"
     borderopacity="1"
     objecttolerance="10"
     gridtolerance="10"
     guidetolerance="10"
     inkscape:pageopacity="0"
     inkscape:pageshadow="2"
     inkscape:window-width="2371"
     inkscape:window-height="1335"
     id="namedview2952"
     showgrid="false"
     inkscape:zoom="7.2926068"
     inkscape:cx="39.010436"
     inkscape:cy="75.899206"
     inkscape:window-x="2391"
     inkscape:window-y="398"
     inkscape:window-maximized="0"
     inkscape:current-layer="svg2"
     fit-margin-top="0"
     fit-margin-left="0"
     fit-margin-right="0"
     fit-margin-bottom="0" />
  <defs
     id="defs2289" />
  <metadata
     id="metadata2284">
    <rdf:RDF>
      <cc:Work>
        <dc:format>image/svg+xml</dc:format>
        <dc:type
           rdf:resource="http://purl.org/dc/dcmitype/StillImage" />
        <cc:license
           rdf:resource="http://creativecommons.org/publicdomain/zero/1.0/" />
        <dc:publisher>
          <cc:Agent
             rdf:about="http://openclipart.org/">
            <dc:title />
          </cc:Agent>
        </dc:publisher>
        <dc:title></dc:title>
        <dc:date>July 30, 2020</dc:date>
        <dc:description />
        <dc:source />
        <dc:creator>
          <cc:Agent>
            <dc:title>Andrew Stone</dc:title>
          </cc:Agent>
        </dc:creator>
        <dc:subject>
          <rdf:Bag>
            <rdf:li>shopping bag icon</rdf:li>
          </rdf:Bag>
        </dc:subject>
      </cc:Work>
      <cc:License
         rdf:about="http://creativecommons.org/publicdomain/zero/1.0/">
        <cc:permits
           rdf:resource="http://creativecommons.org/ns#Reproduction" />
        <cc:permits
           rdf:resource="http://creativecommons.org/ns#Distribution" />
        <cc:permits
           rdf:resource="http://creativecommons.org/ns#DerivativeWorks" />
      </cc:License>
    </rdf:RDF>
  </metadata>
  <flowRoot
     xml:space="preserve"
     id="flowRoot1441"
     style="font-style:normal;font-weight:normal;font-size:85.33333333px;line-height:125%;font-family:sans-serif;letter-spacing:0px;word-spacing:0px;fill:#000000;fill-opacity:1;stroke:none;stroke-width:1px;stroke-linecap:butt;stroke-linejoin:miter;stroke-opacity:1;"><flowRegion
       id="flowRegion1443"
       style="font-size:85.33333333px;"><rect
         id="rect1445"
         width="59.649452"
         height="60.609329"
         x="23.311279"
         y="31.127415"
         style="font-size:85.33333333px;" /></flowRegion><flowPara
       id="flowPara1447">?</flowPara></flowRoot>  <text
     xml:space="preserve"
     style="font-style:normal;font-weight:normal;font-size:20px;line-height:125%;font-family:sans-serif;letter-spacing:0px;word-spacing:0px;fill:#000000;fill-opacity:1;stroke:none;stroke-width:1px;stroke-linecap:butt;stroke-linejoin:miter;stroke-opacity:1"
     x="52.518944"
     y="62.803329"
     id="text1451"><tspan
       sodipodi:role="line"
       id="tspan1449"
       x="52.518944"
       y="80.498642" /></text>
  <g
     aria-label="?"
     style="font-style:normal;font-variant:normal;font-weight:normal;font-stretch:normal;font-size:167.82070923px;line-height:125%;font-family:'Berenis ADF Pro';-inkscape-font-specification:'Berenis ADF Pro, Normal';font-variant-ligatures:normal;font-variant-caps:normal;font-variant-numeric:normal;font-feature-settings:normal;text-align:start;letter-spacing:0px;word-spacing:0px;writing-mode:lr-tb;text-anchor:start;opacity:0.8;fill:#c8c8c8;fill-opacity:1;stroke:#404040;stroke-width:1.96664882;stroke-linecap:butt;stroke-linejoin:miter;stroke-miterlimit:4;stroke-dasharray:none;stroke-opacity:1"
     id="text1455">
    <path
       d="m 55.552164,104.22571 c -4.361806,-0.0139 -10.013863,4.1051 -9.977156,8.46678 0.06792,8.0707 10.652515,15.48273 18.722472,15.35372 4.162037,-0.0665 9.416164,-4.06068 9.39796,-8.22321 -0.03488,-7.97526 -10.167981,-15.5718 -18.143276,-15.59729 z M 52.76289,17.145407 c 0.5485,-3.405471 10.838699,-6.883463 15.435486,-2.224421 2.435271,2.468253 7.010746,8.696967 5.230851,16.792118 -4.345581,19.764156 -25.840487,28.193368 -24.143801,49.719691 0,0 0.754161,6.999656 7.404759,13.153694 6.650599,6.154041 14.514621,8.501761 14.514621,8.501761 L 68.050927,85.792115 C 66.913855,79.556318 68.495007,69.188189 77.221684,60.125871 90.982982,45.525469 94.171576,40.323027 94.171576,28.743398 94.171576,12.296969 83.095409,1.0529811 66.8168,1.0529811 c -16.278609,0 -28.026058,9.5657809 -28.026058,23.1592579 0,6.041546 4.027697,10.740525 9.733601,10.740525 4.698979,0 8.558856,-3.020772 8.558856,-6.880649 0,-6.041545 -5.441123,-3.967922 -4.320309,-10.926708 z"
       style="font-style:normal;font-variant:normal;font-weight:normal;font-stretch:normal;font-size:167.82070923px;font-family:'Berenis ADF Pro';-inkscape-font-specification:'Berenis ADF Pro, Normal';font-variant-ligatures:normal;font-variant-caps:normal;font-variant-numeric:normal;font-feature-settings:normal;text-align:start;writing-mode:lr-tb;text-anchor:start;fill:#c8c8c8;fill-opacity:1;stroke:#404040;stroke-width:1.96664882;stroke-miterlimit:4;stroke-dasharray:none;stroke-opacity:1"
       id="path1462"
       inkscape:connector-curvature="0"
       sodipodi:nodetypes="aaaaasssszcscssssss" />
  </g>
  <text
     xml:space="preserve"
     style="font-style:normal;font-weight:normal;font-size:20px;line-height:125%;font-family:sans-serif;letter-spacing:0px;word-spacing:0px;fill:#000000;fill-opacity:1;stroke:none;stroke-width:1px;stroke-linecap:butt;stroke-linejoin:miter;stroke-opacity:1"
     x="-26.602283"
     y="34.966919"
     id="text1459"><tspan
       sodipodi:role="line"
       id="tspan1457"
       x="-26.602283"
       y="52.662231" /></text>
</svg>
